<?xml version="1.0" encoding="UTF-8" standalone="no"?>
<!DOCTYPE svg PUBLIC "-//W3C//DTD SVG 1.1//EN"
 "http://www.w3.org/Graphics/SVG/1.1/DTD/svg11.dtd">
<!-- Generated by graphviz version 2.38.0 (20140413.2041)
 -->
<!-- Title: models_diagram Pages: 1 -->
<svg width="1324pt" height="86pt"
 viewBox="0.00 0.00 1323.99 86.00" xmlns="http://www.w3.org/2000/svg" xmlns:xlink="http://www.w3.org/1999/xlink">
<g id="graph0" class="graph" transform="scale(1 1) rotate(0) translate(4 82)">
<title>models_diagram</title>
<polygon fill="none" stroke="none" points="-4,4 -4,-82 1319.99,-82 1319.99,4 -4,4"/>
<!-- _diagram_info -->
<g id="node1" class="node"><title>_diagram_info</title>
<text text-anchor="start" x="8" y="-63.6" font-family="Times,serif" font-size="13.00">Models diagram</text>
<text text-anchor="start" x="8" y="-49.6" font-family="Times,serif" font-size="13.00">Date: Dec 10 2017 &#45; 21:59</text>
<text text-anchor="start" x="8" y="-35.6" font-family="Times,serif" font-size="13.00">Migration version: 20171210210227</text>
<text text-anchor="start" x="8" y="-21.6" font-family="Times,serif" font-size="13.00">Generated by RailRoady 1.5.3</text>
<text text-anchor="start" x="8" y="-7.6" font-family="Times,serif" font-size="13.00">http://railroady.prestonlee.com</text>
</g>
<!-- Instrucoes -->
<g id="node2" class="node"><title>Instrucoes</title>
<ellipse fill="none" stroke="black" cx="279" cy="-39" rx="46.5926" ry="18"/>
<text text-anchor="middle" x="279" y="-35.3" font-family="Times,serif" font-size="14.00">Instrucoes</text>
</g>
<!-- Sobre -->
<g id="node3" class="node"><title>Sobre</title>
<ellipse fill="none" stroke="black" cx="375" cy="-39" rx="31.3957" ry="18"/>
<text text-anchor="middle" x="375" y="-35.3" font-family="Times,serif" font-size="14.00">Sobre</text>
</g>
<!-- Home -->
<g id="node4" class="node"><title>Home</title>
<ellipse fill="none" stroke="black" cx="457" cy="-39" rx="32.4942" ry="18"/>
<text text-anchor="middle" x="457" y="-35.3" font-family="Times,serif" font-size="14.00">Home</text>
</g>
<!-- Usuario -->
<g id="node5" class="node"><title>Usuario</title>
<ellipse fill="none" stroke="black" cx="546" cy="-39" rx="38.1938" ry="18"/>
<text text-anchor="middle" x="546" y="-35.3" font-family="Times,serif" font-size="14.00">Usuario</text>
</g>
<!-- User -->
<g id="node6" class="node"><title>User</title>
<ellipse fill="none" stroke="black" cx="630" cy="-39" rx="27.0966" ry="18"/>
<text text-anchor="middle" x="630" y="-35.3" font-family="Times,serif" font-size="14.00">User</text>
</g>
<!-- LoginCuidadoresPg -->
<g id="node7" class="node"><title>LoginCuidadoresPg</title>
<ellipse fill="none" stroke="black" cx="757" cy="-39" rx="81.4863" ry="18"/>
<text text-anchor="middle" x="757" y="-35.3" font-family="Times,serif" font-size="14.00">LoginCuidadoresPg</text>
</g>
<!-- LoginClientesPg -->
<g id="node8" class="node"><title>LoginClientesPg</title>
<ellipse fill="none" stroke="black" cx="926" cy="-39" rx="69.5877" ry="18"/>
<text text-anchor="middle" x="926" y="-35.3" font-family="Times,serif" font-size="14.00">LoginClientesPg</text>
</g>
<!-- ApplicationRecord -->
<g id="node9" class="node"><title>ApplicationRecord</title>
<ellipse fill="none" stroke="black" cx="1091" cy="-39" rx="77.1866" ry="18"/>
<text text-anchor="middle" x="1091" y="-35.3" font-family="Times,serif" font-size="14.00">ApplicationRecord</text>
</g>
<!-- ListaCuidadore -->
<g id="node10" class="node"><title>ListaCuidadore</title>
<ellipse fill="none" stroke="black" cx="1251" cy="-39" rx="64.9885" ry="18"/>
<text text-anchor="middle" x="1251" y="-35.3" font-family="Times,serif" font-size="14.00">ListaCuidadore</text>
</g>
</g>
</svg>
